Gallium,33
Gallium,90
Argon,100
Gallium,22
Argon,56
Gallium,100
Argon,50
Gallium,88
Argon,100
Gallium,83
Gallium,0
Gallium,25
Argon,100
Gallium,89
Gallium,67
Argon,100
Gallium,100
Argon,29
Gallium,100
Argon,100
Gallium,100
Argon,80
Gallium,100
Argon,75
Gallium,17
Argon,17
Gallium,50
Argon,75
Gallium,100
Argon,100
Gallium,100
Argon,71
Gallium,83
Argon,100
Gallium,100
Argon,100
Gallium,17
Argon,17
Gallium,100
Argon,75
Gallium,89
Argon,40
Gallium,88
Argon,50
Gallium,75
Argon,50
Gallium,100
Argon,100
Gallium,89
Argon,100
Gallium,100
Argon,38
Gallium,100
Argon,67
Gallium,67
Argon,0
Gallium,67
Argon,67
Gallium,80
Argon,100
